{
    //---------------------请求头相关配置开始---------------------
    //请求头信息 非必填
    "Headers": {
        "User-Agent": "Mozilla/5.0 (compatible; MSIE 9.0; Windows NT 6.1; Trident/5.0; BOIE9;ZHCN)"
    },
    //播放地址请求头信息 非必填
    "playHeaders": {
        "User-Agent": "Lavf/58.12.100"
    },
    //---------------------请求头相关配置结束---------------------
    //接口请求地址 必填
    "siteUrl": "http://tvcms.ikan6.vip/nicaibudaowojiaosha.php/provide/vod",
    "pCUrl": "http://bfq.ikan6.vip/m3u8/nijiushicaibudao.php?url=",
    "cateManual": {
        "综艺": "3",
        "动漫": "4",
        "动作片": "6",
        "喜剧片": "7",
        "爱情片": "8",
        "科幻片": "9",
        "恐怖片": "10",
        "剧情片": "11",
        "战争片": "12",
        "国产剧": "13",
        "港台剧": "14",
        "日韩剧": "15",
        "美剧": "16",
        "纪录片": "20",
        "灾难片": "24"
    }
}